{
    "count": 1302,
    "next": "https://pokeapi.co/api/v2/pokemon/?offset=1200&limit=100",
    "previous": "https://pokeapi.co/api/v2/pokemon/?offset=1000&limit=100",
    "results": [
        {
            "name": "metagross-mega",
            "url": "https://pokeapi.co/api/v2/pokemon/10076/"
        },
        {
            "name": "kyogre-primal",
            "url": "https://pokeapi.co/api/v2/pokemon/10077/"
        },
        {
            "name": "groudon-primal",
            "url": "https://pokeapi.co/api/v2/pokemon/10078/"
        },
        {
            "name": "rayquaza-mega",
            "url": "https://pokeapi.co/api/v2/pokemon/10079/"
        },
        {
            "name": "pikachu-rock-star",
            "url": "https://pokeapi.co/api/v2/pokemon/10080/"
        },
        {
            "name": "pikachu-belle",
            "url": "https://pokeapi.co/api/v2/pokemon/10081/"
        },
        {
            "name": "pikachu-pop-star",
            "url": "https://pokeapi.co/api/v2/pokemon/10082/"
        },
        {
            "name": "pikachu-phd",
            "url": "https://pokeapi.co/api/v2/pokemon/10083/"
        },
        {
            "name": "pikachu-libre",
            "url": "https://pokeapi.co/api/v2/pokemon/10084/"
        },
        {
            "name": "pikachu-cosplay",
            "url": "https://pokeapi.co/api/v2/pokemon/10085/"
        },
        {
            "name": "hoopa-unbound",
            "url": "https://pokeapi.co/api/v2/pokemon/10086/"
        },
        {
            "name": "camerupt-mega",
            "url": "https://pokeapi.co/api/v2/pokemon/10087/"
        },
        {
            "name": "lopunny-mega",
            "url": "https://pokeapi.co/api/v2/pokemon/10088/"
        },
        {
            "name": "salamence-mega",
            "url": "https://pokeapi.co/api/v2/pokemon/10089/"
        },
        {
            "name": "beedrill-mega",
            "url": "https://pokeapi.co/api/v2/pokemon/10090/"
        },
        {
            "name": "rattata-alola",
            "url": "https://pokeapi.co/api/v2/pokemon/10091/"
        },
        {
            "name": "raticate-alola",
            "url": "https://pokeapi.co/api/v2/pokemon/10092/"
        },
        {
            "name": "raticate-totem-alola",
            "url": "https://pokeapi.co/api/v2/pokemon/10093/"
        },
        {
            "name": "pikachu-original-cap",
            "url": "https://pokeapi.co/api/v2/pokemon/10094/"
        },
        {
            "name": "pikachu-hoenn-cap",
            "url": "https://pokeapi.co/api/v2/pokemon/10095/"
        },
        {
            "name": "pikachu-sinnoh-cap",
            "url": "https://pokeapi.co/api/v2/pokemon/10096/"
        },
        {
            "name": "pikachu-unova-cap",
            "url": "https://pokeapi.co/api/v2/pokemon/10097/"
        },
        {
            "name": "pikachu-kalos-cap",
            "url": "https://pokeapi.co/api/v2/pokemon/10098/"
        },
        {
            "name": "pikachu-alola-cap",
            "url": "https://pokeapi.co/api/v2/pokemon/10099/"
        },
        {
            "name": "raichu-alola",
            "url": "https://pokeapi.co/api/v2/pokemon/10100/"
        },
        {
            "name": "sandshrew-alola",
            "url": "https://pokeapi.co/api/v2/pokemon/10101/"
        },
        {
            "name": "sandslash-alola",
            "url": "https://pokeapi.co/api/v2/pokemon/10102/"
        },
        {
            "name": "vulpix-alola",
            "url": "https://pokeapi.co/api/v2/pokemon/10103/"
        },
        {
            "name": "ninetales-alola",
            "url": "https://pokeapi.co/api/v2/pokemon/10104/"
        },
        {
            "name": "diglett-alola",
            "url": "https://pokeapi.co/api/v2/pokemon/10105/"
        },
        {
            "name": "dugtrio-alola",
            "url": "https://pokeapi.co/api/v2/pokemon/10106/"
        },
        {
            "name": "meowth-alola",
            "url": "https://pokeapi.co/api/v2/pokemon/10107/"
        },
        {
            "name": "persian-alola",
            "url": "https://pokeapi.co/api/v2/pokemon/10108/"
        },
        {
            "name": "geodude-alola",
            "url": "https://pokeapi.co/api/v2/pokemon/10109/"
        },
        {
            "name": "graveler-alola",
            "url": "https://pokeapi.co/api/v2/pokemon/10110/"
        },
        {
            "name": "golem-alola",
            "url": "https://pokeapi.co/api/v2/pokemon/10111/"
        },
        {
            "name": "grimer-alola",
            "url": "https://pokeapi.co/api/v2/pokemon/10112/"
        },
        {
            "name": "muk-alola",
            "url": "https://pokeapi.co/api/v2/pokemon/10113/"
        },
        {
            "name": "exeggutor-alola",
            "url": "https://pokeapi.co/api/v2/pokemon/10114/"
        },
        {
            "name": "marowak-alola",
            "url": "https://pokeapi.co/api/v2/pokemon/10115/"
        },
        {
            "name": "greninja-battle-bond",
            "url": "https://pokeapi.co/api/v2/pokemon/10116/"
        },
        {
            "name": "greninja-ash",
            "url": "https://pokeapi.co/api/v2/pokemon/10117/"
        },
        {
            "name": "zygarde-10-power-construct",
            "url": "https://pokeapi.co/api/v2/pokemon/10118/"
        },
        {
            "name": "zygarde-50-power-construct",
            "url": "https://pokeapi.co/api/v2/pokemon/10119/"
        },
        {
            "name": "zygarde-complete",
            "url": "https://pokeapi.co/api/v2/pokemon/10120/"
        },
        {
            "name": "gumshoos-totem",
            "url": "https://pokeapi.co/api/v2/pokemon/10121/"
        },
        {
            "name": "vikavolt-totem",
            "url": "https://pokeapi.co/api/v2/pokemon/10122/"
        },
        {
            "name": "oricorio-pom-pom",
            "url": "https://pokeapi.co/api/v2/pokemon/10123/"
        },
        {
            "name": "oricorio-pau",
            "url": "https://pokeapi.co/api/v2/pokemon/10124/"
        },
        {
            "name": "oricorio-sensu",
            "url": "https://pokeapi.co/api/v2/pokemon/10125/"
        },
        {
            "name": "lycanroc-midnight",
            "url": "https://pokeapi.co/api/v2/pokemon/10126/"
        },
        {
            "name": "wishiwashi-school",
            "url": "https://pokeapi.co/api/v2/pokemon/10127/"
        },
        {
            "name": "lurantis-totem",
            "url": "https://pokeapi.co/api/v2/pokemon/10128/"
        },
        {
            "name": "salazzle-totem",
            "url": "https://pokeapi.co/api/v2/pokemon/10129/"
        },
        {
            "name": "minior-orange-meteor",
            "url": "https://pokeapi.co/api/v2/pokemon/10130/"
        },
        {
            "name": "minior-yellow-meteor",
            "url": "https://pokeapi.co/api/v2/pokemon/10131/"
        },
        {
            "name": "minior-green-meteor",
            "url": "https://pokeapi.co/api/v2/pokemon/10132/"
        },
        {
            "name": "minior-blue-meteor",
            "url": "https://pokeapi.co/api/v2/pokemon/10133/"
        },
        {
            "name": "minior-indigo-meteor",
            "url": "https://pokeapi.co/api/v2/pokemon/10134/"
        },
        {
            "name": "minior-violet-meteor",
            "url": "https://pokeapi.co/api/v2/pokemon/10135/"
        },
        {
            "name": "minior-red",
            "url": "https://pokeapi.co/api/v2/pokemon/10136/"
        },
        {
            "name": "minior-orange",
            "url": "https://pokeapi.co/api/v2/pokemon/10137/"
        },
        {
            "name": "minior-yellow",
            "url": "https://pokeapi.co/api/v2/pokemon/10138/"
        },
        {
            "name": "minior-green",
            "url": "https://pokeapi.co/api/v2/pokemon/10139/"
        },
        {
            "name": "minior-blue",
            "url": "https://pokeapi.co/api/v2/pokemon/10140/"
        },
        {
            "name": "minior-indigo",
            "url": "https://pokeapi.co/api/v2/pokemon/10141/"
        },
        {
            "name": "minior-violet",
            "url": "https://pokeapi.co/api/v2/pokemon/10142/"
        },
        {
            "name": "mimikyu-busted",
            "url": "https://pokeapi.co/api/v2/pokemon/10143/"
        },
        {
            "name": "mimikyu-totem-disguised",
            "url": "https://pokeapi.co/api/v2/pokemon/10144/"
        },
        {
            "name": "mimikyu-totem-busted",
            "url": "https://pokeapi.co/api/v2/pokemon/10145/"
        },
        {
            "name": "kommo-o-totem",
            "url": "https://pokeapi.co/api/v2/pokemon/10146/"
        },
        {
            "name": "magearna-original",
            "url": "https://pokeapi.co/api/v2/pokemon/10147/"
        },
        {
            "name": "pikachu-partner-cap",
            "url": "https://pokeapi.co/api/v2/pokemon/10148/"
        },
        {
            "name": "marowak-totem",
            "url": "https://pokeapi.co/api/v2/pokemon/10149/"
        },
        {
            "name": "ribombee-totem",
            "url": "https://pokeapi.co/api/v2/pokemon/10150/"
        },
        {
            "name": "rockruff-own-tempo",
            "url": "https://pokeapi.co/api/v2/pokemon/10151/"
        },
        {
            "name": "lycanroc-dusk",
            "url": "https://pokeapi.co/api/v2/pokemon/10152/"
        },
        {
            "name": "araquanid-totem",
            "url": "https://pokeapi.co/api/v2/pokemon/10153/"
        },
        {
            "name": "togedemaru-totem",
            "url": "https://pokeapi.co/api/v2/pokemon/10154/"
        },
        {
            "name": "necrozma-dusk",
            "url": "https://pokeapi.co/api/v2/pokemon/10155/"
        },
        {
            "name": "necrozma-dawn",
            "url": "https://pokeapi.co/api/v2/pokemon/10156/"
        },
        {
            "name": "necrozma-ultra",
            "url": "https://pokeapi.co/api/v2/pokemon/10157/"
        },
        {
            "name": "pikachu-starter",
            "url": "https://pokeapi.co/api/v2/pokemon/10158/"
        },
        {
            "name": "eevee-starter",
            "url": "https://pokeapi.co/api/v2/pokemon/10159/"
        },
        {
            "name": "pikachu-world-cap",
            "url": "https://pokeapi.co/api/v2/pokemon/10160/"
        },
        {
            "name": "meowth-galar",
            "url": "https://pokeapi.co/api/v2/pokemon/10161/"
        },
        {
            "name": "ponyta-galar",
            "url": "https://pokeapi.co/api/v2/pokemon/10162/"
        },
        {
            "name": "rapidash-galar",
            "url": "https://pokeapi.co/api/v2/pokemon/10163/"
        },
        {
            "name": "slowpoke-galar",
            "url": "https://pokeapi.co/api/v2/pokemon/10164/"
        },
        {
            "name": "slowbro-galar",
            "url": "https://pokeapi.co/api/v2/pokemon/10165/"
        },
        {
            "name": "farfetchd-galar",
            "url": "https://pokeapi.co/api/v2/pokemon/10166/"
        },
        {
            "name": "weezing-galar",
            "url": "https://pokeapi.co/api/v2/pokemon/10167/"
        },
        {
            "name": "mr-mime-galar",
            "url": "https://pokeapi.co/api/v2/pokemon/10168/"
        },
        {
            "name": "articuno-galar",
            "url": "https://pokeapi.co/api/v2/pokemon/10169/"
        },
        {
            "name": "zapdos-galar",
            "url": "https://pokeapi.co/api/v2/pokemon/10170/"
        },
        {
            "name": "moltres-galar",
            "url": "https://pokeapi.co/api/v2/pokemon/10171/"
        },
        {
            "name": "slowking-galar",
            "url": "https://pokeapi.co/api/v2/pokemon/10172/"
        },
        {
            "name": "corsola-galar",
            "url": "https://pokeapi.co/api/v2/pokemon/10173/"
        },
        {
            "name": "zigzagoon-galar",
            "url": "https://pokeapi.co/api/v2/pokemon/10174/"
        },
        {
            "name": "linoone-galar",
            "url": "https://pokeapi.co/api/v2/pokemon/10175/"
        }
    ],
    "created_at": "2024-06-27 23:36:18"
}